Low-level HW Digital Systems I/HW_Solution/HW5/multicycle_tb.vcd
$date
	Sun Jan 21 19:55:25 2024
$end
$version
	Icarus Verilog
$end
$timescale
	1ns
$end
$scope module multicycle_tb $end
$var wire 1 ! MemRead $end
$var wire 1 " MemWrite $end
$var wire 32 # PC [31:0] $end
$var wire 32 $ WriteBackData [31:0] $end
$var wire 32 % dAddress [31:0] $end
$var wire 32 & dReadData [31:0] $end
$var wire 32 ' dWriteData [31:0] $end
$var wire 32 ( instr [31:0] $end
$var reg 1 ) clk $end
$var reg 1 * rst $end
$scope module TB $end
$var wire 1 + Branch $end
$var wire 32 , PC [31:0] $end
$var wire 32 - WriteBackData [31:0] $end
$var wire 1 . Zero $end
$var wire 1 / clk $end
$var wire 32 0 dAddress [31:0] $end
$var wire 32 1 dReadData [31:0] $end
$var wire 32 2 dWriteData [31:0] $end
$var wire 3 3 funct3 [2:0] $end
$var wire 7 4 funct7 [6:0] $end
$var wire 32 5 instr [31:0] $end
$var wire 7 6 opcode [6:0] $end
$var wire 1 7 rst $end
$var reg 4 8 ALUCtrl [3:0] $end
$var reg 1 9 ALUSrc $end
$var reg 1 : MemRead $end
$var reg 1 ; MemToReg $end
$var reg 1 < MemWrite $end
$var reg 1 = PCSrc $end
$var reg 1 > RegWrite $end
$var reg 1 ? ex_enable $end
$var reg 1 @ id_enable $end
$var reg 1 A if_enable $end
$var reg 1 B loadPC $end
$var reg 1 C mem_enable $end
$var reg 5 D state [4:0] $end
$var reg 1 E wb_enable $end
$scope module DATAPATH $end
$var wire 4 F ALUCtrl [3:0] $end
$var wire 1 G ALUSrc $end
$var wire 1 H MemToReg $end
$var wire 1 I PCSrc $end
$var wire 1 J RegWrite $end
$var wire 32 K WriteBackData [31:0] $end
$var wire 1 . Zero $end
$var wire 32 L alu_result [31:0] $end
$var wire 32 M branch_offset [31:0] $end
$var wire 1 / clk $end
$var wire 32 N dAddress [31:0] $end
$var wire 32 O dReadData [31:0] $end
$var wire 32 P dWriteData [31:0] $end
$var wire 32 Q instr [31:0] $end
$var wire 1 R loadPC $end
$var wire 7 S opcode [6:0] $end
$var wire 32 T readData1 [31:0] $end
$var wire 32 U readData2 [31:0] $end
$var wire 1 7 rst $end
$var reg 32 V PC [31:0] $end
$var reg 32 W alu_op2 [31:0] $end
$var reg 32 X immB [31:0] $end
$var reg 32 Y immI [31:0] $end
$var reg 32 Z immLW [31:0] $end
$var reg 32 [ immS [31:0] $end
$var reg 32 \ writeData [31:0] $end
$scope module datapath__REGFILE $end
$var wire 1 / clk $end
$var wire 5 ] readReg1 [4:0] $end
$var wire 5 ^ readReg2 [4:0] $end
$var wire 1 J write $end
$var wire 32 _ writeData [31:0] $end
$var wire 5 ` writeReg [4:0] $end
$var integer 32 a i [31:0] $end
$var reg 32 b readData1 [31:0] $end
$var reg 32 c readData2 [31:0] $end
$upscope $end
$scope module datapath_ALU $end
$var wire 4 d alu_op [3:0] $end
$var wire 32 e op1 [31:0] $end
$var wire 32 f op2 [31:0] $end
$var reg 32 g result [31:0] $end
$var reg 1 h zero $end
$upscope $end
$upscope $end
$upscope $end
$scope module rom $end
$var wire 9 i addr [8:0] $end
$var wire 1 / clk $end
$var reg 32 j dout [31:0] $end
$upscope $end
$scope module ram $end
$var wire 9 k addr [8:0] $end
$var wire 1 / clk $end
$var wire 32 l din [31:0] $end
$var wire 1 " we $end
$var reg 32 m dout [31:0] $end
$upscope $end
$upscope $end
$enddefinitions $end
#0
$dumpvars
bx m
bx l
bx k
bx j
b0 i
xh
bx g
bx f
bx e
bx d
bx c
bx b
b100000 a
bx `
bx _
bx ^
bx ]
bx \
bx [
bx Z
bx Y
bx X
bx W
b10000000000000000000000 V
bx U
bx T
bx S
0R
bx Q
bx P
bx O
bx N
bx0 M
bx L
bx K
0J
0I
xH
0G
bx F
0E
b1 D
0C
0B
1A
0@
0?
0>
0=
0<
x;
0:
09
bx 8
17
bx 6
bx 5
bx 4
bx 3
bx 2
bx 1
bx 0
1/
x.
bx -
b10000000000000000000000 ,
x+
1*
1)
bx (
bx '
bx &
bx %
bx $
b10000000000000000000000 #
0"
0!
$end
#10
0)
0/
#20
b100 W
b100 f
b100 Y
19
1G
0;
0H
b10 8
b10 F
b10 d
b10011 S
b1 `
b100 ^
b0 ]
b0 4
b0 3
0+
b10011 6
1@
0A
b10000000000000010010011 j
b10000000000000010010011 (
b10000000000000010010011 5
b10000000000000010010011 Q
b10 D
0*
07
1)
1/
#30
0)
0/
#40
b100 k
b100 \
b100 _
b100 $
b100 -
b100 K
0h
0.
b100 g
b100 L
b100 %
b100 0
b100 N
1?
0@
b0 c
b0 U
b0 '
b0 2
b0 P
b0 l
b0 b
b0 T
b0 e
b100 D
1)
1/
#50
0)
0/
#60
1C
0?
b1000 D
1)
1/
#70
0)
0/
#80
1B
1R
1>
1J
1E
0C
b10000 D
1)
1/
#90
0)
0/
#100
0B
0R
0>
0J
0E
1A
b1 D
b100 i
b10000000000000000000100 V
b10000000000000000000100 #
b10000000000000000000100 ,
1)
1/
#110
0)
0/
#120
b1 k
b1 \
b1 _
b1 $
b1 -
b1 K
b1 g
b1 L
b1 %
b1 0
b1 N
b1 W
b1 f
1@
0A
b10 `
b1 ^
b1 Y
b10 D
b100000000000100010011 j
b100000000000100010011 (
b100000000000100010011 5
b100000000000100010011 Q
1)
1/
#130
0)
0/
#140
1?
0@
b100 D
b100 c
b100 U
b100 '
b100 2
b100 P
b100 l
1)
1/
#150
0)
0/
#160
1C
0?
b1000 D
1)
1/
#170
0)
0/
#180
1B
1R
1>
1J
1E
0C
b10000 D
1)
1/
#190
0)
0/
#200
0B
0R
0>
0J
0E
1A
b1 D
b1000 i
b10000000000000000001000 V
b10000000000000000001000 #
b10000000000000000001000 ,
1)
1/
#210
0)
0/
#220
b11 k
b11 \
b11 _
b11 $
b11 -
b11 K
b11 g
b11 L
b11 %
b11 0
b11 N
b11 W
b11 f
b11 `
b11 ^
b11 Y
1@
0A
b1100000000000110010011 j
b1100000000000110010011 (
b1100000000000110010011 5
b1100000000000110010011 Q
b10 D
1)
1/
#230
0)
0/
#240
1?
0@
b0 c
b0 U
b0 '
b0 2
b0 P
b0 l
b100 D
1)
1/
#250
0)
0/
#260
1C
0?
b1000 D
1)
1/
#270
0)
0/
#280
1B
1R
1>
1J
1E
0C
b10000 D
1)
1/
#290
0)
0/
#300
0B
0R
0>
0J
0E
1A
b1 D
b11 c
b11 U
b11 '
b11 2
b11 P
b11 l
b1100 i
b10000000000000000001100 V
b10000000000000000001100 #
b10000000000000000001100 ,
1)
1/
#310
0)
0/
#320
b111 k
b111 \
b111 _
b111 $
b111 -
b111 K
b111 g
b111 L
b111 %
b111 0
b111 N
b111 W
b111 f
1@
0A
b100 `
b111 ^
b111 Y
b10 D
b11100000000001000010011 j
b11100000000001000010011 (
b11100000000001000010011 5
b11100000000001000010011 Q
1)
1/
#330
0)
0/
#340
1?
0@
b100 D
b0 c
b0 U
b0 '
b0 2
b0 P
b0 l
1)
1/
#350
0)
0/
#360
1C
0?
b1000 D
1)
1/
#370
0)
0/
#380
1B
1R
1>
1J
1E
0C
b10000 D
1)
1/
#390
0)
0/
#400
0B
0R
0>
0J
0E
1A
b1 D
b10000 i
b10000000000000000010000 V
b10000000000000000010000 #
b10000000000000000010000 ,
1)
1/
#410
0)
0/
#420
b111111110 k
b11111111111111111111111111111110 \
b11111111111111111111111111111110 _
b11111111111111111111111111111110 $
b11111111111111111111111111111110 -
b11111111111111111111111111111110 K
b11111111111111111111111111111110 g
b11111111111111111111111111111110 L
b11111111111111111111111111111110 %
b11111111111111111111111111111110 0
b11111111111111111111111111111110 N
b11111111111111111111111111111110 W
b11111111111111111111111111111110 f
b101 `
b11110 ^
b11111111111111111111111111111110 Y
b1111111 4
1@
0A
b11111111111000000000001010010011 j
b11111111111000000000001010010011 (
b11111111111000000000001010010011 5
b11111111111000000000001010010011 Q
b10 D
1)
1/
#430
0)
0/
#440
1?
0@
b100 D
1)
1/
#450
0)
0/
#460
1C
0?
b1000 D
1)
1/
#470
0)
0/
#480
1B
1R
1>
1J
1E
0C
b10000 D
1)
1/
#490
0)
0/
#500
0B
0R
0>
0J
0E
1A
b1 D
b10100 i
b10000000000000000010100 V
b10000000000000000010100 #
b10000000000000000010100 ,
1)
1/
#510
0)
0/
#520
09
0G
1@
0A
b110011 S
b110 `
b11 ^
b11 ]
b11 Y
b0 4
b110011 6
b10 D
b1100011000001100110011 j
b1100011000001100110011 (
b1100011000001100110011 5
b1100011000001100110011 Q
1)
1/
#530
0)
0/
#540
b1 k
b1 \
b1 _
b1 $
b1 -
b1 K
1?
0@
b1 g
b1 L
b1 %
b1 0
b1 N
b100 D
b11 c
b11 U
b11 '
b11 2
b11 P
b11 l
b11 b
b11 T
b11 e
1)
1/
#550
0)
0/
#560
1C
0?
b1000 D
1)
1/
#570
0)
0/
#580
1B
1R
1>
1J
1E
0C
b10000 D
1)
1/
#590
0)
0/
#600
0B
0R
0>
0J
0E
1A
b1 D
b11000 i
b10000000000000000011000 V
b10000000000000000011000 #
b10000000000000000011000 ,
1)
1/
#610
0)
0/
#620
b101 k
b101 \
b101 _
b101 $
b101 -
b101 K
b101 g
b101 L
b101 %
b101 0
b101 N
b110 8
b110 F
b110 d
b111 `
b101 ^
b110 ]
b100000 4
1@
0A
b1000000010100110000001110110011 j
b1000000010100110000001110110011 (
b1000000010100110000001110110011 5
b1000000010100110000001110110011 Q
b10 D
1)
1/
#630
0)
0/
#640
b11 k
b11 \
b11 _
b11 $
b11 -
b11 K
b11 g
b11 L
b11 %
b11 0
b11 N
1?
0@
b11111111111111111111111111111110 c
b11111111111111111111111111111110 U
b11111111111111111111111111111110 '
b11111111111111111111111111111110 2
b11111111111111111111111111111110 P
b11111111111111111111111111111110 l
b1 b
b1 T
b1 e
b100 D
1)
1/
#650
0)
0/
#660
1C
0?
b1000 D
1)
1/
#670
0)
0/
#680
1B
1R
1>
1J
1E
0C
b10000 D
1)
1/
#690
0)
0/
#700
0B
0R
0>
0J
0E
1A
b1 D
b11100 i
b10000000000000000011100 V
b10000000000000000011100 #
b10000000000000000011100 ,
1)
1/
#710
0)
0/
#720
b0 k
b1000000000000000000000000000000 \
b1000000000000000000000000000000 _
b1000000000000000000000000000000 $
b1000000000000000000000000000000 -
b1000000000000000000000000000000 K
b1000000000000000000000000000000 g
b1000000000000000000000000000000 L
b1000000000000000000000000000000 %
b1000000000000000000000000000000 0
b1000000000000000000000000000000 N
b1001 8
b1001 F
b1001 d
1@
0A
b1000 `
b10 ^
b11 ]
b0 4
b1 3
b10 D
b1000011001010000110011 j
b1000011001010000110011 (
b1000011001010000110011 5
b1000011001010000110011 Q
1)
1/
#730
0)
0/
#740
b11000000000000000000000000000000 \
b11000000000000000000000000000000 _
b11000000000000000000000000000000 $
b11000000000000000000000000000000 -
b11000000000000000000000000000000 K
1?
0@
b11000000000000000000000000000000 g
b11000000000000000000000000000000 L
b11000000000000000000000000000000 %
b11000000000000000000000000000000 0
b11000000000000000000000000000000 N
b100 D
b1 c
b1 U
b1 '
b1 2
b1 P
b1 l
b11 b
b11 T
b11 e
1)
1/
#750
0)
0/
#760
1C
0?
b1000 D
1)
1/
#770
0)
0/
#780
1B
1R
1>
1J
1E
0C
b10000 D
1)
1/
#790
0)
0/
#800
0B
0R
0>
0J
0E
1A
b1 D
b100000 i
b10000000000000000100000 V
b10000000000000000100000 #
b10000000000000000100000 ,
1)
1/
#810
0)
0/
#820
b0 \
b0 _
b0 $
b0 -
b0 K
1h
1.
b0 g
b0 L
b0 %
b0 0
b0 N
b111 8
b111 F
b111 d
b1001 `
b100 ^
b1000 ]
b10 3
1@
0A
b10001000010010010110011 j
b10001000010010010110011 (
b10001000010010010110011 5
b10001000010010010110011 Q
b10 D
1)
1/
#830
0)
0/
#840
b1 k
b1 \
b1 _
b1 $
b1 -
b1 K
0h
0.
b1 g
b1 L
b1 %
b1 0
b1 N
1?
0@
b111 c
b111 U
b111 '
b111 2
b111 P
b111 l
b11000000000000000000000000000000 b
b11000000000000000000000000000000 T
b11000000000000000000000000000000 e
b100 D
1)
1/
#850
0)
0/
#860
1C
0?
b1000 D
1)
1/
#870
0)
0/
#880
1B
1R
1>
1J
1E
0C
b10000 D
1)
1/
#890
0)
0/
#900
0B
0R
0>
0J
0E
1A
b1 D
b100100 i
b10000000000000000100100 V
b10000000000000000100100 #
b10000000000000000100100 ,
1)
1/
#910
0)
0/
#920
b111111110 k
b111111111111111111111111111110 \
b111111111111111111111111111110 _
b111111111111111111111111111110 $
b111111111111111111111111111110 -
b111111111111111111111111111110 K
b111111111111111111111111111110 g
b111111111111111111111111111110 L
b111111111111111111111111111110 %
b111111111111111111111111111110 0
b111111111111111111111111111110 N
b1101 8
b1101 F
b1101 d
1@
0A
b1010 `
b111 ^
b1 ]
b100 3
b10 D
b11100001100010100110011 j
b11100001100010100110011 (
b11100001100010100110011 5
b11100001100010100110011 Q
1)
1/
#930
0)
0/
#940
b111111010 k
b11111111111111111111111111111010 \
b11111111111111111111111111111010 _
b11111111111111111111111111111010 $
b11111111111111111111111111111010 -
b11111111111111111111111111111010 K
1?
0@
b11111111111111111111111111111010 g
b11111111111111111111111111111010 L
b11111111111111111111111111111010 %
b11111111111111111111111111111010 0
b11111111111111111111111111111010 N
b100 D
b11 c
b11 U
b11 '
b11 2
b11 P
b11 l
b100 b
b100 T
b100 e
1)
1/
#950
0)
0/
#960
1C
0?
b1000 D
1)
1/
#970
0)
0/
#980
1B
1R
1>
1J
1E
0C
b10000 D
1)
1/
#990
0)
0/
#1000
0B
0R
0>
0J
0E
1A
b1 D
b101000 i
b10000000000000000101000 V
b10000000000000000101000 #
b10000000000000000101000 ,
1)
1/
#1010
0)
0/
#1020
b0 k
b0 \
b0 _
b0 $
b0 -
b0 K
1h
1.
b0 g
b0 L
b0 %
b0 0
b0 N
b1000 8
b1000 F
b1000 d
b1011 `
b1001 ^
b1010 ]
b101 3
1@
0A
b100101010101010110110011 j
b100101010101010110110011 (
b100101010101010110110011 5
b100101010101010110110011 Q
b10 D
1)
1/
#1030
0)
0/
#1040
b11 k
b11 \
b11 _
b11 $
b11 -
b11 K
0h
0.
b11 g
b11 L
b11 %
b11 0
b11 N
1?
0@
b1 c
b1 U
b1 '
b1 2
b1 P
b1 l
b11111111111111111111111111111010 b
b11111111111111111111111111111010 T
b11111111111111111111111111111010 e
b100 D
1)
1/
#1050
0)
0/
#1060
1C
0?
b1000 D
1)
1/
#1070
0)
0/
#1080
1B
1R
1>
1J
1E
0C
b10000 D
1)
1/
#1090
0)
0/
#1100
0B
0R
0>
0J
0E
1A
b1 D
b101100 i
b10000000000000000101100 V
b10000000000000000101100 #
b10000000000000000101100 ,
1)
1/
#1110
0)
0/
#1120
b111111010 k
b11111111111111111111111111111010 \
b11111111111111111111111111111010 _
b11111111111111111111111111111010 $
b11111111111111111111111111111010 -
b11111111111111111111111111111010 K
b11111111111111111111111111111010 g
b11111111111111111111111111111010 L
b11111111111111111111111111111010 %
b11111111111111111111111111111010 0
b11111111111111111111111111111010 N
b0 8
b0 F
b0 d
1@
0A
b1100 `
b110 ^
b11 ]
b111 3
b10 D
b11000011111011000110011 j
b11000011111011000110011 (
b11000011111011000110011 5
b11000011111011000110011 Q
1)
1/
#1130
0)
0/
#1140
b10 k
b10 \
b10 _
b10 $
b10 -
b10 K
1?
0@
b10 g
b10 L
b10 %
b10 0
b10 N
b100 D
b11 b
b11 T
b11 e
1)
1/
#1150
0)
0/
#1160
1C
0?
b1000 D
1)
1/
#1170
0)
0/
#1180
1B
1R
1>
1J
1E
0C
b10000 D
1)
1/
#1190
0)
0/
#1200
0B
0R
0>
0J
0E
1A
b1 D
b110000 i
b10000000000000000110000 V
b10000000000000000110000 #
b10000000000000000110000 ,
1)
1/
#1210
0)
0/
#1220
b111111111 k
b11111111111111111111111111111111 \
b11111111111111111111111111111111 _
b11111111111111111111111111111111 $
b11111111111111111111111111111111 -
b11111111111111111111111111111111 K
b11111111111111111111111111111111 g
b11111111111111111111111111111111 L
b11111111111111111111111111111111 %
b11111111111111111111111111111111 0
b11111111111111111111111111111111 N
b1 8
b1 F
b1 d
b1101 `
b1100 ^
b1010 ]
b110 3
1@
0A
b110001010110011010110011 j
b110001010110011010110011 (
b110001010110011010110011 5
b110001010110011010110011 Q
b10 D
1)
1/
#1230
0)
0/
#1240
b111111110 k
b11111111111111111111111111111110 \
b11111111111111111111111111111110 _
b11111111111111111111111111111110 $
b11111111111111111111111111111110 -
b11111111111111111111111111111110 K
b11111111111111111111111111111110 g
b11111111111111111111111111111110 L
b11111111111111111111111111111110 %
b11111111111111111111111111111110 0
b11111111111111111111111111111110 N
1?
0@
b10 c
b10 U
b10 '
b10 2
b10 P
b10 l
b11111111111111111111111111111010 b
b11111111111111111111111111111010 T
b11111111111111111111111111111010 e
b100 D
1)
1/
#1250
0)
0/
#1260
1C
0?
b1000 D
1)
1/
#1270
0)
0/
#1280
1B
1R
1>
1J
1E
0C
b10000 D
1)
1/
#1290
0)
0/
#1300
0B
0R
0>
0J
0E
1A
b1 D
b110100 i
b10000000000000000110100 V
b10000000000000000110100 #
b10000000000000000110100 ,
1)
1/
#1310
0)
0/
#1320
b111111111 k
b11111111111111111111111111111111 \
b11111111111111111111111111111111 _
b11111111111111111111111111111111 $
b11111111111111111111111111111111 -
b11111111111111111111111111111111 K
b11111111111111111111111111111111 g
b11111111111111111111111111111111 L
b11111111111111111111111111111111 %
b11111111111111111111111111111111 0
b11111111111111111111111111111111 N
b1010 8
b1010 F
b1010 d
1@
0A
b1110 `
b10 ^
b101 ]
b100000 4
b101 3
b10 D
b1000000001000101101011100110011 j
b1000000001000101101011100110011 (
b1000000001000101101011100110011 5
b1000000001000101101011100110011 Q
1)
1/
#1330
0)
0/
#1340
1?
0@
b100 D
b1 c
b1 U
b1 '
b1 2
b1 P
b1 l
b11111111111111111111111111111110 b
b11111111111111111111111111111110 T
b11111111111111111111111111111110 e
1)
1/
#1350
0)
0/
#1360
1C
0?
b1000 D
1)
1/
#1370
0)
0/
#1380
1B
1R
1>
1J
1E
0C
b10000 D
1)
1/
#1390
0)
0/
#1400
0B
0R
0>
0J
0E
1A
b1 D
b111000 i
b10000000000000000111000 V
b10000000000000000111000 #
b10000000000000000111000 ,
1)
1/
#1410
0)
0/
#1420
b111111110 k
b11111111111111111111111111111110 \
b11111111111111111111111111111110 _
b11111111111111111111111111111110 $
b11111111111111111111111111111110 -
b11111111111111111111111111111110 K
0h
0.
b11111111111111111111111111111110 g
b11111111111111111111111111111110 L
b11111111111111111111111111111110 %
b11111111111111111111111111111110 0
b11111111111111111111111111111110 N
b0 [
b0 W
b0 f
19
1G
b10 8
b10 F
b10 d
b100011 S
b0 `
b1010 ^
b10 ]
b0 4
b10 3
b100011 6
1@
0A
b101000010010000000100011 j
b101000010010000000100011 (
b101000010010000000100011 5
b101000010010000000100011 Q
b10 D
1)
1/
#1430
0)
0/
#1440
b1 k
b1 \
b1 _
b1 $
b1 -
b1 K
b1 g
b1 L
b1 %
b1 0
b1 N
1?
0@
b11111111111111111111111111111010 c
b11111111111111111111111111111010 U
b11111111111111111111111111111010 '
b11111111111111111111111111111010 2
b11111111111111111111111111111010 P
b11111111111111111111111111111010 l
b1 b
b1 T
b1 e
b100 D
1)
1/
#1450
0)
0/
#1460
1<
1"
1C
0?
b1000 D
1)
1/
#1470
0)
0/
#1480
1B
1R
0<
0"
1E
0C
b10000 D
1)
1/
#1490
0)
0/
#1500
0B
0R
0E
1A
b1 D
b111100 i
b11111111111111111111111111111010 m
b11111111111111111111111111111010 &
b11111111111111111111111111111010 1
b11111111111111111111111111111010 O
b10000000000000000111100 V
b10000000000000000111100 #
b10000000000000000111100 ,
1)
1/
#1510
0)
0/
#1520
b1 k
0h
0.
b1 g
b1 L
b1 %
b1 0
b1 N
b11111111111111111111111111111010 \
b11111111111111111111111111111010 _
b11111111111111111111111111111010 $
b11111111111111111111111111111010 -
b11111111111111111111111111111010 K
b0 Z
b0 W
b0 f
1;
1H
1@
0A
b11 S
b1111 `
b0 ^
b1111 [
b11 6
b10 D
b10010011110000011 j
b10010011110000011 (
b10010011110000011 5
b10010011110000011 Q
1)
1/
#1530
0)
0/
#1540
1?
0@
b100 D
b0 c
b0 U
b0 '
b0 2
b0 P
b0 l
1)
1/
#1550
0)
0/
#1560
1:
1!
1C
0?
b1000 D
1)
1/
#1570
0)
0/
#1580
1B
1R
1>
1J
0:
0!
1E
0C
b10000 D
1)
1/
#1590
0)
0/
#1600
0B
0R
0>
0J
0E
1A
b1 D
b1000000 i
b10000000000000001000000 V
b10000000000000001000000 #
b10000000000000001000000 ,
1)
1/
#1610
0)
0/
#1620
b1 \
b1 _
b1 $
b1 -
b1 K
b111 Y
b111 W
b111 f
0;
0H
b0 8
b0 F
b0 d
b10011 S
b10000 `
b111 ^
b1101 ]
b111 Z
b111 3
b10011 6
1@
0A
b11101101111100000010011 j
b11101101111100000010011 (
b11101101111100000010011 5
b11101101111100000010011 Q
b10 D
1)
1/
#1630
0)
0/
#1640
b110 k
b110 \
b110 _
b110 $
b110 -
b110 K
b110 g
b110 L
b110 %
b110 0
b110 N
1?
0@
b11 c
b11 U
b11 '
b11 2
b11 P
b11 l
b11111111111111111111111111111110 b
b11111111111111111111111111111110 T
b11111111111111111111111111111110 e
b100 D
1)
1/
#1650
0)
0/
#1660
1C
0?
b1000 D
bx m
bx &
bx 1
bx O
1)
1/
#1670
0)
0/
#1680
1B
1R
1>
1J
1E
0C
b10000 D
1)
1/
#1690
0)
0/
#1700
0B
0R
0>
0J
0E
1A
b1 D
b1000100 i
b10000000000000001000100 V
b10000000000000001000100 #
b10000000000000001000100 ,
1)
1/
#1710
0)
0/
#1720
b111111110 k
b11111111111111111111111111111110 \
b11111111111111111111111111111110 _
b11111111111111111111111111111110 $
b11111111111111111111111111111110 -
b11111111111111111111111111111110 K
b11111111111111111111111111111110 g
b11111111111111111111111111111110 L
b11111111111111111111111111111110 %
b11111111111111111111111111111110 0
b11111111111111111111111111111110 N
b100 W
b100 f
b1 8
b1 F
b1 d
1@
0A
b10001 `
b100 ^
b100 Y
b110 3
b10 D
b10001101110100010010011 j
b10001101110100010010011 (
b10001101110100010010011 5
b10001101110100010010011 Q
1)
1/
#1730
0)
0/
#1740
1?
0@
b100 D
b111 c
b111 U
b111 '
b111 2
b111 P
b111 l
1)
1/
#1750
0)
0/
#1760
1C
0?
b1000 D
1)
1/
#1770
0)
0/
#1780
1B
1R
1>
1J
1E
0C
b10000 D
1)
1/
#1790
0)
0/
#1800
0B
0R
0>
0J
0E
1A
b1 D
b1001000 i
b10000000000000001001000 V
b10000000000000001001000 #
b10000000000000001001000 ,
1)
1/
#1810
0)
0/
#1820
b111111111 k
b11111111111111111111111111111 \
b11111111111111111111111111111 _
b11111111111111111111111111111 $
b11111111111111111111111111111 -
b11111111111111111111111111111 K
b11111111111111111111111111111 g
b11111111111111111111111111111 L
b11111111111111111111111111111 %
b11111111111111111111111111111 0
b11111111111111111111111111111 N
b11 W
b11 f
b1000 8
b1000 F
b1000 d
b10010 `
b11 ^
b100 ]
b11 Y
b101 3
1@
0A
b1100100101100100010011 j
b1100100101100100010011 (
b1100100101100100010011 5
b1100100101100100010011 Q
b10 D
1)
1/
#1830
0)
0/
#1840
b0 k
b0 \
b0 _
b0 $
b0 -
b0 K
1h
1.
b0 g
b0 L
b0 %
b0 0
b0 N
1?
0@
b11 c
b11 U
b11 '
b11 2
b11 P
b11 l
b111 b
b111 T
b111 e
b100 D
1)
1/
#1850
0)
0/
#1860
1C
0?
b1000 D
1)
1/
#1870
0)
0/
#1880
1B
1R
1>
1J
1E
0C
b10000 D
1)
1/
#1890
0)
0/
#1900
0B
0R
0>
0J
0E
1A
b1 D
b1001100 i
b10000000000000001001100 V
b10000000000000001001100 #
b10000000000000001001100 ,
1)
1/
#1910
0)
0/
#1920
b100 k
b100 \
b100 _
b100 $
b100 -
b100 K
b110 M
0h
0.
b100 g
b100 L
b100 %
b100 0
b100 N
b11 X
0=
0I
09
0G
b110 8
b110 F
b110 d
1@
0A
b1100011 S
b110 `
b1000 ^
b110 ]
b1000 Y
b0 3
1+
b1100011 6
b10 D
b100000110000001101100011 j
b100000110000001101100011 (
b100000110000001101100011 5
b100000110000001101100011 Q
1)
1/
#1930
0)
0/
#1940
b1 k
b1000000000000000000000000000001 \
b1000000000000000000000000000001 _
b1000000000000000000000000000001 $
b1000000000000000000000000000001 -
b1000000000000000000000000000001 K
1?
0@
b11000000000000000000000000000000 W
b11000000000000000000000000000000 f
b1000000000000000000000000000001 g
b1000000000000000000000000000001 L
b1000000000000000000000000000001 %
b1000000000000000000000000000001 0
b1000000000000000000000000000001 N
b100 D
b11000000000000000000000000000000 c
b11000000000000000000000000000000 U
b11000000000000000000000000000000 '
b11000000000000000000000000000000 2
b11000000000000000000000000000000 P
b11000000000000000000000000000000 l
b1 b
b1 T
b1 e
1)
1/
#1950
0)
0/
#1960
1C
0?
b1000 D
b11111111111111111111111111111010 m
b11111111111111111111111111111010 &
b11111111111111111111111111111010 1
b11111111111111111111111111111010 O
1)
1/
#1970
0)
0/
#1980
1B
1R
1E
0C
b10000 D
1)
1/
#1990
0)
0/
#2000
0B
0R
0E
1A
b1 D
b1010000 i
b10000000000000001010000 V
b10000000000000001010000 #
b10000000000000001010000 ,
1)
1/
#2010
0)
0/
#2020
b11000000000000000000000000000001 \
b11000000000000000000000000000001 _
b11000000000000000000000000000001 $
b11000000000000000000000000000001 -
b11000000000000000000000000000001 K
b11000000000000000000000000000001 g
b11000000000000000000000000000001 L
b11000000000000000000000000000001 %
b11000000000000000000000000000001 0
b11000000000000000000000000000001 N
b0 M
b10 8
b10 F
b10 d
b0 S
b0 `
b0 ^
b0 ]
b0 X
0+
b0 6
1@
0A
b0 j
b0 (
b0 5
b0 Q
b10 D
1)
1/
#2030
0)
0/
#2040
b0 k
b11000000000000000000000000000000 \
b11000000000000000000000000000000 _
b11000000000000000000000000000000 $
b11000000000000000000000000000000 -
b11000000000000000000000000000000 K
b11000000000000000000000000000000 g
b11000000000000000000000000000000 L
b11000000000000000000000000000000 %
b11000000000000000000000000000000 0
b11000000000000000000000000000000 N
1?
0@
b0 c
b0 U
b0 '
b0 2
b0 P
b0 l
b0 b
b0 T
b0 e
b100 D
1)
1/
#2050
0)
0/
#2060
1C
0?
b1000 D
bx m
bx &
bx 1
bx O
1)
1/
#2070
0)
0/
#2080
1B
1R
1E
0C
b10000 D
1)
1/
#2090
0)
0/
#2100
0B
0R
0E
1A
b1 D
b1010100 i
b10000000000000001010100 V
b10000000000000001010100 #
b10000000000000001010100 ,
1)
1/
#2110
0)
0/
#2120
1@
0A
b10 D
1)
1/
#2130
0)
0/
#2140
1?
0@
b100 D
1)
1/
#2150
0)
0/
#2160
1C
0?
b1000 D
1)
1/
#2170
0)
0/
#2180
1B
1R
1E
0C
b10000 D
1)
1/
#2190
0)
0/
#2200
0B
0R
0E
1A
b1 D
b1011000 i
b10000000000000001011000 V
b10000000000000001011000 #
b10000000000000001011000 ,
1)
1/
#2210
0)
0/
#2220
1@
0A
b10 D
1)
1/
#2230
0)
0/
#2240
1?
0@
b100 D
1)
1/
#2250
0)
0/
#2260
1C
0?
b1000 D
1)
1/
#2270
0)
0/
#2280
1B
1R
1E
0C
b10000 D
1)
1/
#2290
0)
0/
#2300
0B
0R
0E
1A
b1 D
b1011100 i
b10000000000000001011100 V
b10000000000000001011100 #
b10000000000000001011100 ,
1)
1/
#2310
0)
0/
#2320
1@
0A
b10 D
1)
1/
#2330
0)
0/
#2340
1?
0@
b100 D
1)
1/
#2350
0)
0/
#2360
1C
0?
b1000 D
1)
1/
#2370
0)
0/
#2380
1B
1R
1E
0C
b10000 D
1)
1/
#2390
0)
0/
#2400
0B
0R
0E
1A
b1 D
b1100000 i
b10000000000000001100000 V
b10000000000000001100000 #
b10000000000000001100000 ,
1)
1/
#2410
0)
0/
#2420
1@
0A
b10 D
1)
1/
#2430
0)
0/
#2440
1?
0@
b100 D
1)
1/
#2450
0)
0/
#2460
1C
0?
b1000 D
1)
1/
#2470
0)
0/
#2480
1B
1R
1E
0C
b10000 D
1)
1/
#2490
0)
0/
#2500
0B
0R
0E
1A
b1 D
b1100100 i
b10000000000000001100100 V
b10000000000000001100100 #
b10000000000000001100100 ,
1)
1/
#2510
0)
0/
#2520
1@
0A
b10 D
1)
1/
#2530
0)
0/
#2540
1?
0@
b100 D
1)
1/
#2550
0)
0/
#2560
1C
0?
b1000 D
1)
1/
#2570
0)
0/
#2580
1B
1R
1E
0C
b10000 D
1)
1/
#2590
0)
0/
#2600
0B
0R
0E
1A
b1 D
b1101000 i
b10000000000000001101000 V
b10000000000000001101000 #
b10000000000000001101000 ,
1)
1/
#2610
0)
0/
#2620
1@
0A
b10 D
1)
1/
#2630
0)
0/
#2640
1?
0@
b100 D
1)
1/
#2650
0)
0/
#2660
1C
0?
b1000 D
1)
1/
#2670
0)
0/
#2680
1B
1R
1E
0C
b10000 D
1)
1/
#2690
0)
0/
#2700
0B
0R
0E
1A
b1 D
b1101100 i
b10000000000000001101100 V
b10000000000000001101100 #
b10000000000000001101100 ,
1)
1/
#2710
0)
0/
#2720
1@
0A
b10 D
1)
1/
#2730
0)
0/
#2740
1?
0@
b100 D
1)
1/
#2750
0)
0/
#2760
1C
0?
b1000 D
1)
1/
#2770
0)
0/
#2780
1B
1R
1E
0C
b10000 D
1)
1/
#2790
0)
0/
#2800
0B
0R
0E
1A
b1 D
b1110000 i
b10000000000000001110000 V
b10000000000000001110000 #
b10000000000000001110000 ,
1)
1/
#2810
0)
0/
